\relax 
\citation{wordnet}
\citation{freebase}
\citation{yago}
\citation{wikidata}
\citation{rs}
\citation{qa}
\citation{reading}
\citation{TransE}
\citation{TransH}
\citation{HolE}
\citation{tTransE}
\citation{HyTE}
\citation{tTransE}
\citation{timeSequence}
\citation{HyTE}
\citation{TransE}
\citation{TransE}
\citation{TransH}
\citation{TransR}
\citation{TransD}
\citation{embedding_review}
\citation{TransE}
\citation{TransH}
\citation{TransD}
\citation{TransR}
\citation{ComplEx}
\citation{DistMult}
\citation{HolE}
\citation{tTransE}
\citation{timeSequence}
\citation{HyTE}
\citation{KnowEvolve}
\citation{HyTE}
\citation{TransE}
\providecommand*\caption@xref[2]{\@setref\relax\@undefined{#1}}
\newlabel{both}{{1}{3}}
\newlabel{ent}{{2}{3}}
\newlabel{rel}{{3}{3}}
\citation{TransE}
\citation{TransH}
\citation{HolE}
\citation{tTransE}
\citation{HyTE}
\citation{HyTE}
\citation{HyTE}
\citation{yago}
\citation{wikidata}
\citation{TransE}
\citation{TransH}
\citation{HolE}
\citation{tTransE}
\citation{HyTE}
\citation{HyTE}
\citation{TransE}
\citation{TransH}
\citation{HolE}
\citation{tTransE}
\citation{HyTE}
\citation{HyTE}
\citation{HyTE}
\newlabel{three}{{}{4}}
\citation{linkprediction}
\citation{linkprediction}
\citation{HyTE}
\newlabel{entity}{{1}{5}}
\newlabel{statistics}{{2}{5}}
\citation{HyTE}
\citation{tTransE}
\citation{HyTE}
\citation{tTransE}
\newlabel{relation}{{3}{6}}
\newlabel{table_time}{{4}{6}}
\citation{t-SNE}
\newlabel{analysis1}{{5}{7}}
\newlabel{rel1}{{4a}{7}}
\newlabel{sub@rel1}{{(a)}{a}}
\newlabel{rel3}{{4b}{7}}
\newlabel{sub@rel3}{{(b)}{b}}
\newlabel{ent4}{{4c}{7}}
\newlabel{sub@ent4}{{(c)}{c}}
\newlabel{ent6}{{4d}{7}}
\newlabel{sub@ent6}{{(d)}{d}}
\newlabel{rel_pca}{{4}{7}}
\newlabel{rel_tsne}{{5}{7}}
\bibstyle{aaai}
\bibdata{paper}
\bibcite{freebase}{\citeauthoryear {Bollacker \bgroup et al\unhbox \voidb@x \hbox {.}\egroup }{2008}}
\bibcite{linkprediction}{\citeauthoryear {Bordes \bgroup et al\unhbox \voidb@x \hbox {.}\egroup }{2011}}
\bibcite{TransE}{\citeauthoryear {Bordes \bgroup et al\unhbox \voidb@x \hbox {.}\egroup }{2013}}
\bibcite{HyTE}{\citeauthoryear {Dasgupta, Ray, and Talukdar}{2018}}
\bibcite{wikidata}{\citeauthoryear {Erxleben \bgroup et al\unhbox \voidb@x \hbox {.}\egroup }{2014}}
\bibcite{timeSequence}{\citeauthoryear {Garcia-Duran, Duman{\v {c}}i{\'{c}}, and Niepert}{2018}}
\bibcite{TransD}{\citeauthoryear {Ji \bgroup et al\unhbox \voidb@x \hbox {.}\egroup }{2015}}
\bibcite{tTransE}{\citeauthoryear {Jiang \bgroup et al\unhbox \voidb@x \hbox {.}\egroup }{2016}}
\bibcite{TransR}{\citeauthoryear {Lin \bgroup et al\unhbox \voidb@x \hbox {.}\egroup }{2015}}
\bibcite{yago}{\citeauthoryear {Mahdisoltani, Biega, and Suchanek}{2013}}
\bibcite{wordnet}{\citeauthoryear {Miller}{1995}}
\bibcite{HolE}{\citeauthoryear {Nickel, Rosasco, and Poggio}{2016}}
\bibcite{qa}{\citeauthoryear {Sydorova, Poerner, and Roth}{2019}}
\bibcite{KnowEvolve}{\citeauthoryear {Trivedi \bgroup et al\unhbox \voidb@x \hbox {.}\egroup }{2017}}
\bibcite{ComplEx}{\citeauthoryear {Trouillon \bgroup et al\unhbox \voidb@x \hbox {.}\egroup }{2016}}
\bibcite{t-SNE}{\citeauthoryear {van\nobreakspace  {}der Maaten and Hinton}{2008}}
\bibcite{TransH}{\citeauthoryear {Wang \bgroup et al\unhbox \voidb@x \hbox {.}\egroup }{2014}}
\bibcite{embedding_review}{\citeauthoryear {Wang \bgroup et al\unhbox \voidb@x \hbox {.}\egroup }{2017}}
\bibcite{rs}{\citeauthoryear {Wang \bgroup et al\unhbox \voidb@x \hbox {.}\egroup }{2019}}
\bibcite{DistMult}{\citeauthoryear {Yang \bgroup et al\unhbox \voidb@x \hbox {.}\egroup }{2014}}
\bibcite{reading}{\citeauthoryear {Yang \bgroup et al\unhbox \voidb@x \hbox {.}\egroup }{2019}}
